<svg width="41" height="39" viewBox="0 0 41 39" fill="none" xmlns="http://www.w3.org/2000/svg">
<path d="M40.6335 21.6364C40.2751 18.0313 38.6645 14.6326 36.0983 12.0663C33.9052 9.87327 31.2209 8.464 28.3965 7.83738V5.85636C29.5501 5.56936 30.4076 4.52514 30.4076 3.28397C30.4076 1.82222 29.2184 0.633057 27.7566 0.633057H22.143C20.6812 0.633057 19.492 1.82222 19.492 3.28397C19.492 4.52506 20.3495 5.56929 21.5031 5.85636V7.84291C18.6873 8.47219 16.0119 9.87951 13.825 12.0664C13.3465 12.5449 12.9052 13.047 12.5012 13.5687C12.4816 13.5672 12.4621 13.5658 12.4421 13.5658H6.88603C6.45549 13.5658 6.10635 13.9148 6.10635 14.3454C6.10635 14.7761 6.45549 15.1251 6.88603 15.1251H11.4403C10.8686 16.0822 10.4077 17.0873 10.0568 18.1219H1.57118C1.14064 18.1219 0.791504 18.471 0.791504 18.9016C0.791504 19.3322 1.14064 19.6813 1.57118 19.6813H9.61623C9.39153 20.6676 9.26257 21.6715 9.22928 22.6781H5.78145C5.35091 22.6781 5.00177 23.0272 5.00177 23.4578C5.00177 23.8884 5.35091 24.2375 5.78145 24.2375H9.25415C9.31995 25.2467 9.4822 26.2506 9.74098 27.2343H4.6899C4.25936 27.2343 3.91022 27.5834 3.91022 28.014C3.91022 28.4446 4.25936 28.7937 4.6899 28.7937H10.2386C11.0034 30.817 12.1988 32.7134 13.825 34.3397C16.3938 36.9084 19.796 38.5194 23.4048 38.876C23.9198 38.9268 24.4353 38.952 24.95 38.952C27.9925 38.952 30.9963 38.0715 33.5451 36.4117C33.9059 36.1767 34.008 35.6937 33.773 35.3329C33.538 34.972 33.055 34.87 32.6941 35.105C27.115 38.738 19.6431 37.9525 14.9276 33.2371C9.39488 27.7043 9.39488 18.7019 14.9276 13.1691C20.4603 7.63637 29.4627 7.63637 34.9956 13.1691C39.7048 17.8783 40.4946 25.3438 36.8735 30.9203C36.639 31.2814 36.7417 31.7643 37.1027 31.9988C37.4641 32.2333 37.9468 32.1306 38.1813 31.7695C40.116 28.7899 40.9869 25.1913 40.6335 21.6364ZM21.0514 3.28405C21.0514 2.68213 21.541 2.19249 22.143 2.19249H27.7566C28.3586 2.19249 28.8482 2.68213 28.8482 3.28405C28.8482 3.88596 28.3586 4.3756 27.7566 4.3756H27.6168H22.2828H22.143C21.541 4.3756 21.0514 3.88588 21.0514 3.28405ZM23.0624 7.57486V5.93496H26.8371V7.57205C25.5837 7.42298 24.3156 7.42391 23.0624 7.57486Z" fill="#F2B61A"/>
<path d="M35.5482 33.0083C35.3424 33.0083 35.142 33.0917 34.9971 33.2367C34.8513 33.3818 34.7686 33.5829 34.7686 33.788C34.7686 33.993 34.8513 34.1942 34.9971 34.3392C35.142 34.485 35.3425 34.5676 35.5482 34.5676C35.7533 34.5676 35.9537 34.485 36.0994 34.3392C36.2445 34.1942 36.3279 33.993 36.3279 33.788C36.3279 33.5829 36.2445 33.3818 36.0994 33.2367C35.9537 33.0917 35.7532 33.0083 35.5482 33.0083Z" fill="#F2B61A"/>
<path d="M24.9628 11.1079C18.2935 11.1079 12.8677 16.5337 12.8677 23.203C12.8677 29.8723 18.2935 35.2981 24.9628 35.2981C31.632 35.2981 37.0579 29.8723 37.0579 23.203C37.0579 16.5337 31.632 11.1079 24.9628 11.1079ZM24.9628 33.7387C19.1533 33.7387 14.427 29.0124 14.427 23.203C14.427 17.3936 19.1533 12.6673 24.9628 12.6673C30.7722 12.6673 35.4985 17.3936 35.4985 23.203C35.4985 29.0124 30.7722 33.7387 24.9628 33.7387Z" fill="#F2B61A"/>
<path d="M29.895 17.1683L26.0332 21.03C25.7103 20.8703 25.347 20.7801 24.9631 20.7801C24.579 20.7801 24.2158 20.8703 23.8929 21.03L22.1645 19.3016C21.86 18.9972 21.3665 18.9972 21.0618 19.3016C20.7574 19.6061 20.7574 20.0998 21.0618 20.4043L22.7902 22.1326C22.6304 22.4555 22.5403 22.8188 22.5403 23.2028C22.5403 24.5387 23.6271 25.6256 24.9631 25.6256C26.299 25.6256 27.3858 24.5387 27.3858 23.2028C27.3858 22.8188 27.2956 22.4555 27.1359 22.1326L30.8843 18.3842L30.9976 18.2709C31.3021 17.9664 31.3021 17.4728 30.9976 17.1683C30.6932 16.8638 30.1996 16.8638 29.895 17.1683ZM24.9631 24.0663C24.487 24.0663 24.0996 23.6789 24.0996 23.2029C24.0996 22.7268 24.487 22.3394 24.9631 22.3394C25.4391 22.3394 25.8265 22.7268 25.8265 23.2029C25.8265 23.6789 25.4391 24.0663 24.9631 24.0663Z" fill="#F2B61A"/>
<path d="M33.2994 22.4326H32.577C32.1465 22.4326 31.7974 22.7817 31.7974 23.2123C31.7974 23.6429 32.1465 23.992 32.577 23.992H33.2994C33.7299 23.992 34.0791 23.6429 34.0791 23.2123C34.0791 22.7817 33.7299 22.4326 33.2994 22.4326Z" fill="#F2B61A"/>
<path d="M17.3486 22.4136H16.6263C16.1958 22.4136 15.8467 22.7626 15.8467 23.1932C15.8467 23.6239 16.1958 23.9729 16.6263 23.9729H17.3486C17.7792 23.9729 18.1283 23.6239 18.1283 23.1932C18.1283 22.7626 17.7792 22.4136 17.3486 22.4136Z" fill="#F2B61A"/>
<path d="M24.9721 16.3685C25.4026 16.3685 25.7517 16.0195 25.7517 15.5889V14.8666C25.7517 14.436 25.4026 14.0869 24.9721 14.0869C24.5415 14.0869 24.1924 14.436 24.1924 14.8666V15.5889C24.1924 16.0195 24.5415 16.3685 24.9721 16.3685Z" fill="#F2B61A"/>
<path d="M24.9525 30.0374C24.522 30.0374 24.1729 30.3864 24.1729 30.817V31.5393C24.1729 31.9699 24.522 32.319 24.9525 32.319C25.3831 32.319 25.7322 31.9699 25.7322 31.5393V30.817C25.7322 30.3864 25.3831 30.0374 24.9525 30.0374Z" fill="#F2B61A"/>
<path d="M1.57215 27.2339C1.3671 27.2339 1.16594 27.3173 1.02092 27.4623C0.875905 27.6073 0.79248 27.8085 0.79248 28.0136C0.79248 28.2194 0.875827 28.4198 1.02092 28.5648C1.16602 28.7098 1.3671 28.7932 1.57215 28.7932C1.7772 28.7932 1.97835 28.7098 2.1233 28.5648C2.26831 28.4198 2.35182 28.2186 2.35182 28.0136C2.35182 27.8085 2.26839 27.6073 2.1233 27.4623C1.97835 27.3173 1.7772 27.2339 1.57215 27.2339Z" fill="#F2B61A"/>
</svg>
