<svg width="18" height="18" viewBox="0 0 18 18" xmlns="http://www.w3.org/2000/svg">
<path d="M14.4065 9.79102L9 15.1975L3.59349 9.79102L4.58789 8.79662L8.29688 12.5056V0H9.70312V12.5056L13.4121 8.79662L14.4065 9.79102ZM18 16.5938H0V18H18V16.5938Z"/>
</svg>
