<svg width="11" height="20" viewBox="0 0 11 20" xmlns="http://www.w3.org/2000/svg">
<path d="M10.3697 0.00414689L7.78516 0C4.88151 0 3.00504 1.92519 3.00504 4.90494V7.16644H0.406395C0.181841 7.16644 0 7.34849 0 7.57304V10.8497C0 11.0743 0.182049 11.2561 0.406395 11.2561H3.00504V19.5242C3.00504 19.7487 3.18688 19.9306 3.41144 19.9306H6.80193C7.02648 19.9306 7.20833 19.7485 7.20833 19.5242V11.2561H10.2468C10.4713 11.2561 10.6531 11.0743 10.6531 10.8497L10.6544 7.57304C10.6544 7.46523 10.6115 7.36197 10.5354 7.28567C10.4593 7.20936 10.3556 7.16644 10.2478 7.16644H7.20833V5.24934C7.20833 4.3279 7.4279 3.86013 8.62822 3.86013L10.3693 3.85951C10.5936 3.85951 10.7755 3.67746 10.7755 3.45311V0.410542C10.7755 0.186403 10.5938 0.00456158 10.3697 0.00414689Z"/>
</svg>
