<svg width="39" height="39" viewBox="0 0 39 39" fill="none" xmlns="http://www.w3.org/2000/svg">
<path d="M0.694671 38.9478H29.8644C30.2146 38.9478 30.4985 38.6639 30.4985 38.3137V33.8749C30.4985 33.8641 30.4928 33.8558 30.4922 33.8451C30.4896 33.7774 30.4763 33.7107 30.4529 33.6472C30.4529 33.6396 30.4491 33.6314 30.4459 33.6244C30.4216 33.5668 30.3889 33.5132 30.3489 33.4652L23.754 25.6706C23.3922 25.2431 22.8605 24.9967 22.3006 24.9971H18.0576C18.6342 23.8793 19.3115 22.8163 20.0811 21.8214C20.2079 21.8404 20.3475 21.8531 20.4927 21.8614L23.3963 22.1436C23.6582 22.6172 24.121 22.9461 24.6544 23.0377C24.7033 23.0453 24.7514 23.0453 24.8003 23.0491C24.8161 23.0491 24.8294 23.0586 24.8459 23.0586L28.5816 23.0947H28.631C29.0375 23.0872 29.4347 22.9711 29.7813 22.7587L30.626 22.85C30.6489 22.8525 30.672 22.8538 30.6951 22.8538H30.7287H30.775C33.6286 22.6388 36.4073 19.7168 37.5322 15.7516C38.6052 11.964 37.9241 8.26131 35.848 6.4382C35.6753 5.75512 35.2034 5.18653 34.5639 4.89094C34.5601 4.89094 34.5582 4.8865 34.5544 4.88459L31.9792 3.73493C31.495 3.44073 30.899 3.39663 30.3768 3.61635L26.579 1.71968C26.5613 1.7115 26.5431 1.70451 26.5245 1.69875C26.1396 1.45824 25.7233 1.27235 25.2873 1.14643C23.3963 0.610596 21.324 1.21492 19.4533 2.84905C18.5657 3.64014 17.801 4.55916 17.1844 5.57579L5.98961 0.950486H5.9858C5.95209 0.940121 5.91749 0.932904 5.88244 0.928926C5.83701 0.913964 5.78997 0.904386 5.7423 0.900391H0.694671C0.344454 0.900391 0.0605469 1.1843 0.0605469 1.53451V3.55991C0.0606975 3.64288 0.0772932 3.72499 0.109374 3.80151C0.130633 3.84317 0.156819 3.88214 0.187372 3.91755C0.204524 3.94799 0.22403 3.97704 0.245711 4.00443C0.304587 4.06323 0.374378 4.10998 0.451167 4.14203L15.2897 10.2778C14.6957 12.6725 14.7749 15.1848 15.5186 17.5373C14.6098 19.9394 14.0032 22.4453 13.7126 24.9971H8.25914C7.69939 24.9969 7.16796 25.2433 6.80636 25.6706L0.2102 33.4652C0.170196 33.5132 0.137502 33.5668 0.113179 33.6244C0.110009 33.6314 0.109374 33.6396 0.106838 33.6466C0.0828812 33.7101 0.0693895 33.7772 0.0668881 33.8451C0.0668881 33.8558 0.0605469 33.8641 0.0605469 33.8749V38.3137C0.0605469 38.4819 0.127356 38.6432 0.246278 38.7621C0.365199 38.881 0.526491 38.9478 0.694671 38.9478ZM29.2303 37.6796H1.3288V34.509H29.2303V37.6796ZM11.0195 29.436C11.7825 29.1298 12.5896 28.9476 13.4101 28.8963C13.3974 29.2489 13.3955 29.611 13.3905 29.9706C12.5765 29.921 11.7759 29.7405 11.0195 29.436ZM16.7742 17.789C17.1859 16.7422 17.7051 15.7408 18.3233 14.801C18.4952 14.5341 18.686 14.2798 18.894 14.0401C18.9283 14.0141 20.1851 13.1124 24.9683 14.8581C24.4433 15.8329 23.7095 16.6798 22.8193 17.3382C22.1337 17.7862 21.498 18.3064 20.9232 18.8899C20.3525 19.4916 19.8161 20.1106 19.3252 20.7288C18.1781 22.1487 17.22 23.7113 16.4749 25.3776L16.4698 25.389C15.8073 26.8676 15.4153 28.4531 15.3125 30.0701C15.0889 30.0701 14.8703 30.0669 14.6568 30.0606C14.7164 25.2894 15.4235 21.1594 16.7742 17.7897V17.789ZM26.0514 12.262C25.9082 12.757 25.7317 13.2417 25.5232 13.7129C21.0564 12.0641 19.1249 12.4713 18.3804 12.8619C18.4189 11.9625 18.5619 11.0706 18.8065 10.2043C19.8268 6.60751 22.3538 4.04121 24.3126 4.59163C26.2746 5.14902 27.0742 8.66461 26.0514 12.2626V12.262ZM28.7515 4.2213L31.7604 5.72544C31.9172 6.50783 31.9599 7.30879 31.8872 8.10341C31.6399 10.4863 31.0233 12.8163 30.0597 15.0097C29.3074 16.998 28.228 18.8465 26.8662 20.479C26.6564 20.7153 26.4292 20.9355 26.1865 21.1378L24.0304 20.9292C26.3133 19.5652 28.2918 16.8233 29.2721 13.3692C30.2404 9.93857 29.9614 6.58088 28.7515 4.22193V4.2213ZM16.7196 28.8558C17.6864 28.8886 18.6405 29.0853 19.5415 29.4373C18.592 29.8006 17.5875 29.9994 16.5712 30.0251C16.5994 29.6329 16.649 29.2426 16.7196 28.8558ZM28.6209 21.8265H28.6025L27.3374 21.8138C27.5321 21.6293 27.695 21.4562 27.8143 21.3224C29.261 19.5784 30.4145 17.6109 31.2297 15.4967C32.245 13.1827 32.893 10.7244 33.1504 8.21058C33.2294 7.33679 33.1906 6.45636 33.035 5.59291L34.042 6.04124C34.046 6.04094 34.05 6.04094 34.054 6.04124C34.0578 6.04124 34.0604 6.04631 34.0642 6.04758C34.3933 6.22532 34.6207 6.5463 34.6793 6.91569C34.6844 6.93852 34.6907 6.96008 34.6977 6.97911C34.835 7.72003 34.8666 8.47666 34.7915 9.22644C34.6212 11.1574 34.1671 13.0526 33.444 14.8511C32.8145 16.5953 31.9459 18.2437 30.8631 19.7491C30.794 19.843 30.7192 19.9482 30.6393 20.0592C30.1345 20.7631 29.3748 21.8265 28.6209 21.8265ZM36.3122 15.4009C35.406 18.5969 33.2684 21.0814 31.1282 21.524C31.3298 21.2704 31.5087 21.0167 31.671 20.7948L31.8828 20.5018C33.0346 18.9025 33.9593 17.1513 34.6305 15.2982C35.3961 13.385 35.876 11.3695 36.0547 9.31649C36.0636 9.18966 36.0737 9.03177 36.0826 8.85611C36.9153 10.9452 36.9965 13.2586 36.3122 15.4009ZM20.2891 3.80405C21.8256 2.4616 23.4762 1.95177 24.9423 2.36649C28.0685 3.25426 29.4624 8.03302 28.0495 13.0229C26.8447 17.2716 23.9277 20.4073 21.0875 20.5938C21.331 20.3135 21.5825 20.0357 21.8421 19.7605C22.3555 19.2425 22.9224 18.7803 23.5333 18.3819C24.7862 17.4502 25.7833 16.2169 26.4319 14.7966C26.4395 14.7801 26.4458 14.763 26.4534 14.7465C26.7898 14.06 27.0636 13.3446 27.2715 12.6089C28.5194 8.20424 27.3723 4.14774 24.6582 3.37284C21.9442 2.59794 18.8338 5.45657 17.5858 9.85993C17.1681 11.294 17.0177 12.7926 17.142 14.281C16.8484 14.7378 16.5785 15.2094 16.3334 15.6939C16.0159 13.7303 16.1427 11.7205 16.7044 9.81237C17.3034 7.50936 18.5469 5.42501 20.2891 3.80405ZM5.61611 2.16864L16.5611 6.69248C16.1849 7.44982 15.8706 8.23638 15.6213 9.04445L1.3288 3.13314V2.16864H5.61611ZM7.77213 26.4898C7.89314 26.3469 8.07118 26.2647 8.25851 26.2654H13.5851C13.5429 26.7093 13.5082 27.1593 13.4812 27.6154C11.8121 27.7632 9.57241 28.1931 9.57241 29.436C9.57241 30.7493 12.0975 31.1532 13.7469 31.2749C13.8293 31.3151 13.9196 31.3368 14.0113 31.3384C14.0689 31.3351 14.1257 31.3236 14.18 31.3041C14.5192 31.325 14.8775 31.3384 15.2795 31.3384C15.4761 31.3384 15.6663 31.3327 15.8566 31.3269C15.8754 31.3317 15.8944 31.3355 15.9137 31.3384C15.9389 31.3349 15.9639 31.3299 15.9885 31.3231C17.5351 31.2749 20.9866 30.9852 20.9866 29.436C20.9866 28.1931 18.7634 27.7568 17.0139 27.6059C17.1461 27.1514 17.3015 26.704 17.4793 26.2654H22.2987C22.4853 26.2652 22.6625 26.3474 22.7831 26.4898L28.4972 33.2407H2.06184L7.77213 26.4898Z" fill="#828282"/>
</svg>
