<svg width="97" height="50" viewBox="0 0 97 50" fill="none" xmlns="http://www.w3.org/2000/svg">
<path d="M52.6875 10.4375H42.2031V15.9531H46.8594C48.526 15.9531 49.9792 16.2396 51.2188 16.8125C52.4583 17.3854 53.401 18.1979 54.0469 19.25C54.6927 20.3021 55.0156 21.5208 55.0156 22.9062C55.0156 25.0312 54.2917 26.7396 52.8438 28.0312C51.4062 29.3229 49.4427 29.9792 46.9531 30H38.25V7.25H52.6875V10.4375ZM42.2031 19.125V26.8438H46.8438C48.1771 26.8438 49.2135 26.4844 49.9531 25.7656C50.7031 25.0365 51.0781 24.0729 51.0781 22.875C51.0781 21.7292 50.7135 20.8229 49.9844 20.1562C49.2552 19.4896 48.2448 19.1458 46.9531 19.125H42.2031ZM58.4375 30V7.25H66.2344C68.8073 7.25 70.7656 7.76562 72.1094 8.79688C73.4531 9.82812 74.125 11.3646 74.125 13.4062C74.125 14.4479 73.8438 15.3854 73.2812 16.2188C72.7188 17.0521 71.8958 17.6979 70.8125 18.1562C72.0417 18.4896 72.9896 19.1198 73.6562 20.0469C74.3333 20.9635 74.6719 22.0677 74.6719 23.3594C74.6719 25.4948 73.9844 27.1354 72.6094 28.2812C71.2448 29.4271 69.2865 30 66.7344 30H58.4375ZM62.3906 19.7344V26.8438H66.7812C68.0208 26.8438 68.9896 26.5365 69.6875 25.9219C70.3854 25.3073 70.7344 24.4531 70.7344 23.3594C70.7344 20.9948 69.526 19.7865 67.1094 19.7344H62.3906ZM62.3906 16.8281H66.2656C67.4948 16.8281 68.4531 16.5521 69.1406 16C69.8385 15.4375 70.1875 14.6458 70.1875 13.625C70.1875 12.5 69.8646 11.6875 69.2188 11.1875C68.5833 10.6875 67.5885 10.4375 66.2344 10.4375H62.3906V16.8281ZM93 10.4375H82.5156V15.9531H87.1719C88.8385 15.9531 90.2917 16.2396 91.5312 16.8125C92.7708 17.3854 93.7135 18.1979 94.3594 19.25C95.0052 20.3021 95.3281 21.5208 95.3281 22.9062C95.3281 25.0312 94.6042 26.7396 93.1562 28.0312C91.7188 29.3229 89.7552 29.9792 87.2656 30H78.5625V7.25H93V10.4375ZM82.5156 19.125V26.8438H87.1562C88.4896 26.8438 89.526 26.4844 90.2656 25.7656C91.0156 25.0365 91.3906 24.0729 91.3906 22.875C91.3906 21.7292 91.026 20.8229 90.2969 20.1562C89.5677 19.4896 88.5573 19.1458 87.2656 19.125H82.5156Z" fill="#4E4E4E"/>
<path d="M42.7764 46C42.6826 45.8184 42.6006 45.5225 42.5303 45.1123C41.8506 45.8213 41.0186 46.1758 40.0342 46.1758C39.0791 46.1758 38.2998 45.9033 37.6963 45.3584C37.0928 44.8135 36.791 44.1396 36.791 43.3369C36.791 42.3232 37.166 41.5469 37.916 41.0078C38.6719 40.4629 39.75 40.1904 41.1504 40.1904H42.46V39.5664C42.46 39.0742 42.3223 38.6816 42.0469 38.3887C41.7715 38.0898 41.3525 37.9404 40.79 37.9404C40.3037 37.9404 39.9053 38.0635 39.5947 38.3096C39.2842 38.5498 39.1289 38.8574 39.1289 39.2324H36.9932C36.9932 38.7109 37.166 38.2246 37.5117 37.7734C37.8574 37.3164 38.3262 36.959 38.918 36.7012C39.5156 36.4434 40.1807 36.3145 40.9131 36.3145C42.0264 36.3145 42.9141 36.5957 43.5762 37.1582C44.2383 37.7148 44.5781 38.5 44.5957 39.5137V43.8027C44.5957 44.6582 44.7158 45.3408 44.9561 45.8506V46H42.7764ZM40.4297 44.4619C40.8516 44.4619 41.2471 44.3594 41.6162 44.1543C41.9912 43.9492 42.2725 43.6738 42.46 43.3281V41.5352H41.3086C40.5176 41.5352 39.9229 41.6729 39.5244 41.9482C39.126 42.2236 38.9268 42.6133 38.9268 43.1172C38.9268 43.5273 39.0615 43.8555 39.3311 44.1016C39.6064 44.3418 39.9727 44.4619 40.4297 44.4619ZM54.9141 36.4902V46H52.7783V38.2129H50.0889L49.9131 41.5264C49.8018 43.1201 49.4941 44.2656 48.9902 44.9629C48.4922 45.6543 47.7275 46 46.6963 46H46.0371L46.0283 44.2246L46.4678 44.1807C46.9365 44.1162 47.2764 43.832 47.4873 43.3281C47.7041 42.8184 47.8418 41.8926 47.9004 40.5508L48.0762 36.4902H54.9141ZM59.4844 39.5137H61.5762C62.3555 39.5137 63.0352 39.6484 63.6152 39.918C64.1953 40.1875 64.6348 40.5654 64.9336 41.0518C65.2383 41.5381 65.3906 42.1035 65.3906 42.748C65.3906 43.7266 65.0449 44.5117 64.3535 45.1035C63.6621 45.6953 62.7422 45.9941 61.5938 46H57.3486V36.4902H59.4844V39.5137ZM59.4844 41.2275V44.2949H61.5674C62.0889 44.2949 62.499 44.166 62.7979 43.9082C63.1025 43.6445 63.2549 43.2725 63.2549 42.792C63.2549 42.3115 63.1055 41.9336 62.8066 41.6582C62.5137 41.377 62.1152 41.2334 61.6113 41.2275H59.4844ZM74.7158 36.4902V46H72.5889V42.5107H70.5938L68.5635 46H66.3486L68.5898 42.1592C68.0039 41.9131 67.5527 41.5615 67.2363 41.1045C66.9258 40.6475 66.7705 40.123 66.7705 39.5312C66.7705 38.6465 67.1104 37.9229 67.79 37.3604C68.4756 36.792 69.3984 36.502 70.5586 36.4902H74.7158ZM68.9062 39.584C68.9062 39.9824 69.0527 40.3076 69.3457 40.5596C69.6445 40.8057 70.0254 40.9287 70.4883 40.9287H72.5889V38.1865H70.6201C70.0986 38.1865 69.6826 38.3184 69.3721 38.582C69.0615 38.8457 68.9062 39.1797 68.9062 39.584ZM85.1396 46H83.0039V42.1592H79.3037V46H77.168V36.4902H79.3037V40.4541H83.0039V36.4902H85.1396V46ZM91.3271 44.4707C91.8604 44.4707 92.3027 44.3154 92.6543 44.0049C93.0059 43.6943 93.1934 43.3105 93.2168 42.8535H95.2295C95.2061 43.4453 95.0215 43.999 94.6758 44.5146C94.3301 45.0244 93.8613 45.4287 93.2695 45.7275C92.6777 46.0264 92.0391 46.1758 91.3535 46.1758C90.0234 46.1758 88.9688 45.7451 88.1895 44.8838C87.4102 44.0225 87.0205 42.833 87.0205 41.3154V41.0957C87.0205 39.6484 87.4072 38.4912 88.1807 37.624C88.9541 36.751 90.0088 36.3145 91.3447 36.3145C92.4756 36.3145 93.3955 36.6455 94.1045 37.3076C94.8193 37.9639 95.1943 38.8281 95.2295 39.9004H93.2168C93.1934 39.3555 93.0059 38.9072 92.6543 38.5557C92.3086 38.2041 91.8662 38.0283 91.3271 38.0283C90.6357 38.0283 90.1025 38.2803 89.7275 38.7842C89.3525 39.2822 89.1621 40.041 89.1562 41.0605V41.4033C89.1562 42.4346 89.3408 43.2051 89.71 43.7148C90.085 44.2188 90.624 44.4707 91.3271 44.4707Z" fill="#4E4E4E"/>
<rect x="2" y="7" width="27" height="37" stroke="#4E4E4E" stroke-width="4"/>
<rect x="8" y="14" width="2" height="23" stroke="#4E4E4E" stroke-width="2"/>
<rect x="21" y="27" width="2" height="10" stroke="#4E4E4E" stroke-width="2"/>
<rect x="23" y="35" width="2" height="9" transform="rotate(90 23 35)" stroke="#4E4E4E" stroke-width="2"/>
<rect x="23" y="23" width="2" height="9" transform="rotate(90 23 23)" stroke="#4E4E4E" stroke-width="2"/>
<rect x="23" y="14" width="2" height="9" transform="rotate(90 23 14)" stroke="#4E4E4E" stroke-width="2"/>
<mask id="mask0" mask-type="alpha" maskUnits="userSpaceOnUse" x="0" y="5" width="31" height="41">
<rect x="2" y="7" width="27" height="37" stroke="white" stroke-width="4"/>
<rect x="8" y="14" width="2" height="23" stroke="white" stroke-width="2"/>
<rect x="21" y="27" width="2" height="10" stroke="white" stroke-width="2"/>
<rect x="23" y="35" width="2" height="9" transform="rotate(90 23 35)" stroke="white" stroke-width="2"/>
<rect x="23" y="23" width="2" height="9" transform="rotate(90 23 23)" stroke="white" stroke-width="2"/>
<rect x="23" y="14" width="2" height="9" transform="rotate(90 23 14)" stroke="white" stroke-width="2"/>
</mask>
<g mask="url(#mask0)">
<path d="M1.32617 -6L-12.9997 47.4648L41.7508 4.83174L1.32617 -6Z" fill="#F2B61A"/>
</g>
</svg>
