<svg width="56" height="36" viewBox="0 0 56 36" fill="none" xmlns="http://www.w3.org/2000/svg">
<path d="M51.8324 15.5338L50.3973 9.79349C50.7897 9.71014 51.0841 9.36205 51.0841 8.94502V8.01949C51.0841 6.00998 49.4492 4.37518 47.4398 4.37518H40.9032V2.46611C40.9032 1.47726 40.0988 0.672852 39.1099 0.672852H5.79029C4.80144 0.672852 3.99703 1.47726 3.99703 2.46611V18.2004C3.99703 18.6796 4.38549 19.0681 4.86476 19.0681C5.34392 19.0681 5.73249 18.6797 5.73249 18.2004V2.46611C5.73249 2.43418 5.75836 2.40831 5.79029 2.40831H39.1098C39.1418 2.40831 39.1676 2.43418 39.1676 2.46611V18.2006C39.1676 18.6798 39.5561 19.0684 40.0354 19.0684C40.5145 19.0684 40.9031 18.6799 40.9031 18.2006V17.217H51.1389C51.1397 17.217 51.1404 17.2172 51.1411 17.2172C51.142 17.2172 51.1428 17.2171 51.1435 17.2171C52.4031 17.2179 53.4725 18.0447 53.8399 19.1838H51.1418C50.6626 19.1838 50.2741 19.5723 50.2741 20.0516V21.9026C50.2741 23.4018 51.4937 24.6214 52.9928 24.6214H53.9763V28.4392H51.7074C50.9621 26.2872 48.9163 24.737 46.514 24.737C44.1117 24.737 42.0659 26.2872 41.3207 28.4392H40.9029V21.9025C40.9029 21.4234 40.5144 21.0348 40.0351 21.0348C39.556 21.0348 39.1674 21.4233 39.1674 21.9025V28.439H21.1647C20.4194 26.287 18.3736 24.7368 15.9713 24.7368C13.569 24.7368 11.5231 26.287 10.7779 28.439H5.79029C5.75836 28.439 5.73249 28.4131 5.73249 28.3812V26.4723H9.49251C9.97167 26.4723 10.3602 26.0838 10.3602 25.6045C10.3602 25.1253 9.97178 24.7368 9.49251 24.7368H1.16265C0.68349 24.7368 0.294922 25.1253 0.294922 25.6045C0.294922 26.0838 0.683382 26.4723 1.16265 26.4723H3.99714V28.3812C3.99714 29.3701 4.80155 30.1745 5.7904 30.1745H10.4775C10.4772 30.1937 10.4759 30.2129 10.4759 30.2323C10.4759 33.2625 12.9412 35.7276 15.9713 35.7276C19.0014 35.7276 21.4667 33.2625 21.4667 30.2323C21.4667 30.2128 21.4654 30.1937 21.4652 30.1745H41.0202C41.02 30.1937 41.0187 30.2129 41.0187 30.2323C41.0187 33.2625 43.484 35.7276 46.514 35.7276C49.5441 35.7276 52.0094 33.2625 52.0094 30.2323C52.0094 30.2128 52.0081 30.1937 52.0079 30.1745H54.844C55.3232 30.1745 55.7117 29.786 55.7117 29.3067V20.0514C55.7118 17.7663 54.0259 15.8677 51.8324 15.5338ZM40.9032 6.11053H47.4398C48.4924 6.11053 49.3488 6.9669 49.3488 8.01949V8.07729H40.9032V6.11053ZM40.9032 15.4816V9.81264H48.6134L50.0306 15.4816H40.9032ZM15.9713 33.9925C13.898 33.9925 12.2113 32.3059 12.2113 30.2325C12.2113 28.1591 13.898 26.4725 15.9713 26.4725C18.0446 26.4725 19.7313 28.1591 19.7313 30.2325C19.7313 32.3059 18.0446 33.9925 15.9713 33.9925ZM46.5143 33.9925C44.441 33.9925 42.7542 32.3059 42.7542 30.2325C42.7542 28.1591 44.441 26.4725 46.5143 26.4725C48.5875 26.4725 50.2743 28.1591 50.2743 30.2325C50.2743 32.3059 48.5875 33.9925 46.5143 33.9925ZM53.9765 22.886H52.9931C52.4508 22.886 52.0096 22.4448 52.0096 21.9025V20.9191H53.9764V22.886H53.9765Z" fill="#828282"/>
<path d="M15.971 28.4395C14.9821 28.4395 14.1777 29.2439 14.1777 30.2327C14.1777 31.2216 14.9821 32.026 15.971 32.026C16.9598 32.026 17.7643 31.2216 17.7643 30.2327C17.7643 29.2439 16.9598 28.4395 15.971 28.4395Z" fill="#828282"/>
<path d="M46.5159 28.4395C45.5271 28.4395 44.7227 29.2439 44.7227 30.2327C44.7227 31.2216 45.5271 32.026 46.5159 32.026C47.5048 32.026 48.3092 31.2216 48.3092 30.2327C48.3092 29.2439 47.5048 28.4395 46.5159 28.4395Z" fill="#828282"/>
<path d="M36.3331 24.7373H23.3755C22.8964 24.7373 22.5078 25.1258 22.5078 25.605C22.5078 26.0843 22.8963 26.4728 23.3755 26.4728H36.3331C36.8123 26.4728 37.2009 26.0843 37.2009 25.605C37.2009 25.1258 36.8124 24.7373 36.3331 24.7373Z" fill="#828282"/>
<path d="M14.1208 21.0352H3.01421C2.53505 21.0352 2.14648 21.4236 2.14648 21.9029C2.14648 22.3822 2.53494 22.7706 3.01421 22.7706H14.1208C14.5999 22.7706 14.9885 22.3822 14.9885 21.9029C14.9885 21.4236 14.5999 21.0352 14.1208 21.0352Z" fill="#828282"/>
<path d="M30.4681 9.257C30.1294 8.91822 29.5798 8.91822 29.2411 9.25711L21.5247 16.9734L17.5105 12.9592C17.1716 12.6203 16.6222 12.6203 16.2835 12.9592C15.9446 13.2981 15.9446 13.8474 16.2835 14.1863L20.9112 18.814C21.0806 18.9835 21.3027 19.0682 21.5247 19.0682C21.7467 19.0682 21.9689 18.9835 22.1382 18.814L30.468 10.4842C30.8069 10.1452 30.8069 9.59589 30.4681 9.257Z" fill="#828282"/>
</svg>
